2 administrator 81dc9bdb52d04dc20036dbd8313ed055 administrator admin@gmail.com
3 userAnton 6211080fa89981f66b1a0c9d55c61d0f user bleac-96@mail.ru
4 usertest 9c1476f8d9ee0e4e8882831141622770 user email@mail.ru
5 maximegor fe5c19c32f70722e6c53dc290fdf147e user coolmail@yandex.ru